﻿<?xml version="1.0" standalone="no"?>
<!DOCTYPE svg PUBLIC "-//W3C//DTD SVG 1.1//EN" "http://www.w3.org/Graphics/SVG/1.1/DTD/svg11.dtd">
<svg xmlns="http://www.w3.org/2000/svg">
<metadata>Copyright (C) 2021 by original authors @ fontello.com</metadata>
<defs>
<font id="fontello" horiz-adv-x="1000" >
<font-face font-family="fontello" font-weight="400" font-stretch="normal" units-per-em="1000" ascent="850" descent="-150" />
<missing-glyph horiz-adv-x="1000" />
<glyph glyph-name="ccw" unicode="&#xe800;" d="M857 350q0-87-34-166t-91-137-137-92-166-34q-96 0-183 41t-147 114q-4 6-4 13t5 11l76 77q6 5 14 5 9-1 13-7 41-53 100-82t126-29q58 0 110 23t92 61 61 91 22 111-22 111-61 91-92 61-110 23q-55 0-105-20t-90-57l77-77q17-16 8-38-10-23-33-23h-250q-15 0-25 11t-11 25v250q0 24 22 33 22 10 39-8l72-72q60 57 137 88t159 31q87 0 166-34t137-92 91-137 34-166z" horiz-adv-x="857.1" />

<glyph glyph-name="th-list" unicode="&#xe801;" d="M286 154v-108q0-22-16-37t-38-16h-178q-23 0-38 16t-16 37v108q0 22 16 38t38 15h178q23 0 38-15t16-38z m0 285v-107q0-22-16-38t-38-15h-178q-23 0-38 15t-16 38v107q0 23 16 38t38 16h178q23 0 38-16t16-38z m714-285v-108q0-22-16-37t-38-16h-535q-23 0-38 16t-16 37v108q0 22 16 38t38 15h535q23 0 38-15t16-38z m-714 571v-107q0-22-16-38t-38-16h-178q-23 0-38 16t-16 38v107q0 22 16 38t38 16h178q23 0 38-16t16-38z m714-286v-107q0-22-16-38t-38-15h-535q-23 0-38 15t-16 38v107q0 23 16 38t38 16h535q23 0 38-16t16-38z m0 286v-107q0-22-16-38t-38-16h-535q-23 0-38 16t-16 38v107q0 22 16 38t38 16h535q23 0 38-16t16-38z" horiz-adv-x="1000" />

<glyph glyph-name="leaf" unicode="&#xe802;" d="M714 457q0 15-10 25t-25 11q-96 0-178-28t-145-74-131-123q-11-12-11-25 0-15 11-25t25-11q13 0 25 11 15 13 41 39t38 37q76 69 150 98t175 29q14 0 25 11t10 25z m286 111q0-53-11-108-26-125-103-214t-200-149q-119-61-244-61-83 0-160 27-8 2-49 23t-53 21q-9 0-22-18t-25-39-30-39-33-18q-24 0-36 10t-25 33q-1 2-3 6t-3 6-2 5-1 7q0 20 17 41t38 37 38 31 18 27q0 2-8 21t-9 25q-5 28-5 58 0 64 24 123t66 103 96 77 113 53q31 10 81 15t101 5 99 3 91 13 64 32l16 16t17 16 15 11 20 9 24 3q22 0 40-26t26-63 14-69 4-53z" horiz-adv-x="1000" />

<glyph glyph-name="off" unicode="&#xe803;" d="M857 350q0-87-34-166t-91-137-137-92-166-34-167 34-136 92-92 137-34 166q0 102 45 191t126 151q24 18 54 14t46-28q18-23 14-53t-28-47q-54-41-84-101t-30-127q0-58 23-111t61-91 91-61 111-23 110 23 92 61 61 91 22 111q0 68-30 127t-84 101q-23 18-28 47t14 53q17 24 47 28t53-14q81-61 126-151t45-191z m-357 429v-358q0-29-21-50t-50-21-51 21-21 50v358q0 29 21 50t51 21 50-21 21-50z" horiz-adv-x="857.1" />

<glyph glyph-name="users" unicode="&#xe804;" d="M331 350q-90-3-148-71h-75q-45 0-77 22t-31 66q0 197 69 197 4 0 25-11t54-24 66-12q38 0 75 13-3-21-3-37 0-78 45-143z m598-356q0-66-41-105t-108-39h-488q-68 0-108 39t-41 105q0 30 2 58t8 61 14 61 24 54 35 45 48 30 62 11q6 0 24-12t41-26 59-27 76-12 75 12 60 27 41 26 24 12q34 0 62-11t47-30 35-45 24-54 15-61 8-61 2-58z m-572 713q0-59-42-101t-101-42-101 42-42 101 42 101 101 42 101-42 42-101z m393-214q0-89-63-152t-151-62-152 62-63 152 63 151 152 63 151-63 63-151z m321-126q0-43-31-66t-77-22h-75q-57 68-147 71 45 65 45 143 0 16-3 37 37-13 74-13 33 0 67 12t54 24 24 11q69 0 69-197z m-71 340q0-59-42-101t-101-42-101 42-42 101 42 101 101 42 101-42 42-101z" horiz-adv-x="1071.4" />

<glyph glyph-name="location" unicode="&#xe805;" d="M250 750q104 0 177-73t73-177q0-106-62-243t-126-223l-62-84q-10 12-27 35t-60 89-76 130-60 147-27 149q0 104 73 177t177 73z m0-388q56 0 96 40t40 96-40 95-96 39-95-39-39-95 39-96 95-40z" horiz-adv-x="500" />

<glyph glyph-name="home" unicode="&#xe806;" d="M521 819q322-279 500-429 20-16 20-40 0-21-15-37t-36-15l-105 0 0-364q0-21-15-37t-36-16l-156 0q-22 0-37 16t-16 37l0 208-209 0 0-208q0-21-15-37t-36-16l-156 0q-21 0-37 16t-16 37l0 364-103 0q-22 0-37 15t-16 37 19 40z" horiz-adv-x="1041" />

<glyph glyph-name="edit" unicode="&#xe807;" d="M966 671q24-23 24-55t-24-55l-185-185 0-469q0-21-15-36t-37-16l-676 0q-22 0-37 16t-16 36l0 677q0 21 16 37t37 15l468 0 185 185q24 24 55 24t55-24z m-523-486l327 328-112 112-328-327z m-134 69l4-86 88-4z m369-295l0 312-167-160q-20-20-63-33t-80-14l-159 0 0 159q0 41 11 82t31 61l165 167-312 0 0-574 574 0z m130 590l67 67-114 114-67-67z" horiz-adv-x="990" />

<glyph glyph-name="location-1" unicode="&#xe808;" d="M711 725q122-120 122-290t-122-290l-295-290-293 290q-123 120-123 290t123 290 295 120 293-120z m-295-426q55 0 93 37 39 39 39 92t-39 92-93 39q-52 0-91-39t-39-92 39-92q38-37 91-37z" horiz-adv-x="833" />

<glyph glyph-name="book" unicode="&#xe809;" d="M915 583q22-31 10-72l-154-505q-10-36-42-60t-69-25h-515q-43 0-83 30t-55 74q-14 37-1 71 0 2 1 15t3 20q0 5-2 12t-2 11q1 6 5 12t9 13 9 13q13 21 25 51t17 51q2 6 0 17t0 16q2 6 9 15t10 13q12 20 23 51t14 51q1 5-1 17t0 16q2 7 12 17t13 13q10 14 23 47t16 54q0 4-2 14t-1 15q1 4 5 10t10 13 10 11q4 7 9 17t8 20 9 20 11 18 15 13 20 6 26-3l0-1q21 5 28 5h425q41 0 64-32t10-72l-153-506q-20-66-40-85t-72-20h-485q-15 0-21-8-6-9-1-24 14-39 81-39h515q16 0 31 9t20 23l167 550q4 13 3 32 21-8 33-24z m-594-1q-2-7 1-12t11-6h339q8 0 15 6t9 12l12 36q2 7-1 12t-12 6h-339q-7 0-14-6t-9-12z m-46-143q-3-7 1-12t11-6h339q7 0 14 6t10 12l11 36q3 7-1 13t-11 5h-339q-7 0-14-5t-10-13z" horiz-adv-x="928.6" />

<glyph glyph-name="list-alt" unicode="&#xe80a;" d="M214 189v-35q0-8-5-13t-13-5h-35q-7 0-13 5t-5 13v35q0 8 5 13t13 5h35q8 0 13-5t5-13z m0 143v-36q0-7-5-12t-13-5h-35q-7 0-13 5t-5 12v36q0 7 5 13t13 5h35q8 0 13-5t5-13z m0 143v-36q0-7-5-12t-13-6h-35q-7 0-13 6t-5 12v36q0 7 5 13t13 5h35q8 0 13-5t5-13z m643-286v-35q0-8-5-13t-13-5h-535q-8 0-13 5t-5 13v35q0 8 5 13t13 5h535q8 0 13-5t5-13z m0 143v-36q0-7-5-12t-13-5h-535q-8 0-13 5t-5 12v36q0 7 5 13t13 5h535q8 0 13-5t5-13z m0 143v-36q0-7-5-12t-13-6h-535q-8 0-13 6t-5 12v36q0 7 5 13t13 5h535q8 0 13-5t5-13z m72-393v464q0 8-6 13t-12 5h-822q-7 0-12-5t-6-13v-464q0-7 6-12t12-6h822q7 0 12 6t6 12z m71 607v-607q0-37-26-63t-63-26h-822q-36 0-63 26t-26 63v607q0 37 26 63t63 27h822q37 0 63-27t26-63z" horiz-adv-x="1000" />

<glyph glyph-name="search" unicode="&#xe80b;" d="M643 386q0 103-73 176t-177 74-177-74-73-176 73-177 177-73 177 73 73 177z m286-465q0-29-22-50t-50-21q-30 0-50 21l-191 191q-100-69-223-69-80 0-153 31t-125 84-84 125-31 153 31 152 84 126 125 84 153 31 153-31 125-84 84-126 31-152q0-123-69-223l191-191q21-21 21-51z" horiz-adv-x="928.6" />

<glyph glyph-name="home-1" unicode="&#xe80c;" d="M786 296v-267q0-15-11-25t-25-11h-214v214h-143v-214h-214q-15 0-25 11t-11 25v267q0 1 0 2t0 2l321 264 321-264q1-1 1-4z m124 39l-34-41q-5-5-12-6h-2q-7 0-12 3l-386 322-386-322q-7-4-13-3-7 1-12 6l-35 41q-4 6-3 13t6 12l401 334q18 15 42 15t43-15l136-113v108q0 8 5 13t13 5h107q8 0 13-5t5-13v-227l122-102q6-4 6-12t-4-13z" horiz-adv-x="928.6" />

<glyph glyph-name="download" unicode="&#xe80d;" d="M714 100q0 15-10 25t-25 11-25-11-11-25 11-25 25-11 25 11 10 25z m143 0q0 15-10 25t-26 11-25-11-10-25 10-25 25-11 26 11 10 25z m72 125v-179q0-22-16-37t-38-16h-821q-23 0-38 16t-16 37v179q0 22 16 38t38 16h259l75-76q33-32 76-32t76 32l76 76h259q22 0 38-16t16-38z m-182 318q10-23-8-39l-250-250q-10-11-25-11t-25 11l-250 250q-17 16-8 39 10 21 33 21h143v250q0 15 11 25t25 11h143q14 0 25-11t10-25v-250h143q24 0 33-21z" horiz-adv-x="928.6" />

<glyph glyph-name="upload" unicode="&#xe80e;" d="M714 29q0 14-10 25t-25 10-25-10-11-25 11-25 25-11 25 11 10 25z m143 0q0 14-10 25t-26 10-25-10-10-25 10-25 25-11 26 11 10 25z m72 125v-179q0-22-16-38t-38-16h-821q-23 0-38 16t-16 38v179q0 22 16 38t38 15h238q12-31 39-51t62-20h143q34 0 61 20t40 51h238q22 0 38-15t16-38z m-182 361q-9-22-33-22h-143v-250q0-15-10-25t-25-11h-143q-15 0-25 11t-11 25v250h-143q-23 0-33 22-9 22 8 39l250 250q10 10 25 10t25-10l250-250q18-17 8-39z" horiz-adv-x="928.6" />

<glyph glyph-name="folder-open" unicode="&#xe80f;" d="M1049 319q0-17-18-37l-187-221q-24-28-67-48t-81-20h-607q-19 0-33 7t-15 24q0 17 17 37l188 221q24 28 67 48t80 20h607q19 0 34-7t15-24z m-192 192v-90h-464q-53 0-110-26t-92-67l-188-221-2-3q0 2-1 7t0 7v536q0 51 37 88t88 37h179q51 0 88-37t37-88v-18h303q52 0 88-37t37-88z" horiz-adv-x="1071.4" />

<glyph glyph-name="folder" unicode="&#xe810;" d="M929 511v-393q0-51-37-88t-88-37h-679q-51 0-88 37t-37 88v536q0 51 37 88t88 37h179q51 0 88-37t37-88v-18h375q51 0 88-37t37-88z" horiz-adv-x="928.6" />

<glyph glyph-name="leaf-1" unicode="&#xe811;" d="M236 646q182 106 506 66 168-22 196-50 4-6-2-10-76-40-130-109t-78-132-65-132-93-105q-138-96-382-4-66-76-114-176-12-24-47-7t-25 39q44 100 129 193t176 153 176 106 141 68l54 20q-14 0-41-1t-104-14-148-38-162-84-161-141q-22 242 174 358z" horiz-adv-x="940" />

<glyph glyph-name="garden" unicode="&#xe81a;" d="M165 750c-13 0-15-28-15-50l0-100c0-102 100-153 200-150l0-400c-50 100-200 250-350 200 0 0 125-300 375-300s375 300 375 300c-150 50-300-100-350-200l0 400c100-3 200 48 200 150l0 100c0 22-2 50-15 50-10 0-21-11-35-25l-75-75-75 84c-8 9-12 16-25 16-13 0-17-7-25-16l-75-84-75 75c-14 14-25 25-35 25z" horiz-adv-x="750" />

<glyph glyph-name="spin3" unicode="&#xe832;" d="M494 850c-266 0-483-210-494-472-1-19 13-20 13-20l84 0c16 0 19 10 19 18 10 199 176 358 378 358 107 0 205-45 273-118l-58-57c-11-12-11-27 5-31l247-50c21-5 46 11 37 44l-58 227c-2 9-16 22-29 13l-65-60c-89 91-214 148-352 148z m409-508c-16 0-19-10-19-18-10-199-176-358-377-358-108 0-205 45-274 118l59 57c10 12 10 27-5 31l-248 50c-21 5-46-11-37-44l58-227c2-9 16-22 30-13l64 60c89-91 214-148 353-148 265 0 482 210 493 473 1 18-13 19-13 19l-84 0z" horiz-adv-x="1000" />

<glyph glyph-name="spin4" unicode="&#xe834;" d="M498 850c-114 0-228-39-320-116l0 0c173 140 428 130 588-31 134-134 164-332 89-495-10-29-5-50 12-68 21-20 61-23 84 0 3 3 12 15 15 24 71 180 33 393-112 539-99 98-228 147-356 147z m-409-274c-14 0-29-5-39-16-3-3-13-15-15-24-71-180-34-393 112-539 185-185 479-195 676-31l0 0c-173-140-428-130-589 31-134 134-163 333-89 495 11 29 6 50-12 68-11 11-27 17-44 16z" horiz-adv-x="1001" />

<glyph glyph-name="spin5" unicode="&#xe838;" d="M462 850c-6 0-11-5-11-11l0-183 0 0c0-6 5-11 11-11l69 0c1 0 1 0 1 0 7 0 12 5 12 11l0 183 0 0c0 6-5 11-12 11l-69 0c0 0 0 0-1 0z m250-47c-4 1-8-2-10-5l-91-158 0 0c-4-6-2-13 4-16l60-34c0-1 0-1 0-1 6-3 13-1 16 4l91 158c3 6 2 13-4 16l-61 35c-1 1-3 1-5 1z m-428-2c-2 0-4-1-6-2l-61-35c-5-3-7-10-4-16l91-157c0 0 0 0 0 0 3-6 10-8 16-5l61 35c5 4 7 11 4 16l-91 157c0 1 0 1 0 1-2 4-6 6-10 6z m620-163c-2 0-4 0-6-1l-157-91c0 0 0 0 0 0-6-3-8-10-5-16l35-61c4-5 11-7 16-4l157 91c1 0 1 0 1 0 6 3 7 11 4 16l-35 61c-2 4-6 6-10 5z m-810-4c-5 0-9-2-11-6l-35-61c-3-5-1-12 4-15l158-91 0 0c6-4 13-2 16 4l35 60c0 0 0 0 0 0 3 6 1 13-4 16l-158 91c-2 1-4 2-5 2z m712-235l0 0c-6 0-11-5-11-11l0-69c0-1 0-1 0-1 0-7 5-12 11-12l183 0 0 0c6 0 11 5 11 12l0 69c0 0 0 0 0 1 0 6-5 11-11 11l-183 0z m-794-5l0 0c-7 0-12-5-12-12l0-69c0 0 0 0 0-1 0-6 5-11 12-11l182 0 0 0c6 0 11 5 11 11l0 69c0 1 0 1 0 1 0 7-5 12-11 12l-182 0z m772-153c-4 0-8-2-10-6l-34-60c-1 0-1 0-1 0-3-6-1-13 4-16l158-91c6-3 13-1 16 4l35 61c3 5 1 12-4 15l-158 92 0 0c-2 1-4 1-6 1z m-566-5c-1 0-3 0-5-1l-157-91c0 0-1 0-1 0-5-3-7-10-4-16l35-61c3-5 10-7 16-4l157 91c0 0 0 0 0 0 6 3 8 10 5 16l-35 61c-3 3-7 6-11 5z m468-121c-2 0-4 0-6-1l-61-35c-5-4-7-11-4-16l91-157c0-1 0-1 0-1 3-6 11-7 16-4l61 35c5 3 7 10 4 16l-91 157c0 0 0 0 0 0-2 4-6 6-10 6z m-367-2c-4 0-8-2-10-6l-91-158c-3-6-1-13 4-16l61-35c5-3 12-1 15 4l92 158 0 0c3 6 1 13-5 16l-60 35c0 0 0 0 0 0-2 1-4 1-6 2z m149-58c-7 0-12-5-12-11l0-183 0 0c0-6 5-11 12-11l69 0c0 0 0 0 1 0 6 0 11 5 11 11l0 183 0 0c0 6-5 11-11 11l-69 0c-1 0-1 0-1 0z" horiz-adv-x="1000" />

<glyph glyph-name="spin6" unicode="&#xe839;" d="M855 9c-189-190-520-172-705 13-190 190-200 494-28 695 11 13 21 26 35 34 36 23 85 18 117-13 30-31 35-76 16-112-5-9-9-15-16-22-140-151-145-379-8-516 153-153 407-121 542 34 106 122 142 297 77 451-83 198-305 291-510 222l0 1c236 82 492-24 588-252 71-167 37-355-72-493-11-15-23-29-36-42z" horiz-adv-x="1000" />

<glyph glyph-name="up-circled" unicode="&#xf0aa;" d="M717 351q0 15-10 25l-202 202-51 51q-10 10-25 10t-25-10l-51-51-202-202q-10-10-10-25t10-26l51-50q10-10 25-10t25 10l105 105v-280q0-14 11-25t25-11h71q15 0 25 11t11 25v280l106-105q10-11 25-11t25 11l51 50q10 11 10 26z m140-1q0-117-57-215t-156-156-215-58-216 58-155 156-58 215 58 215 155 156 216 58 215-58 156-156 57-215z" horiz-adv-x="857.1" />

<glyph glyph-name="down-circled" unicode="&#xf0ab;" d="M717 349q0 16-10 26l-51 50q-10 10-25 10t-25-10l-106-105v280q0 15-11 25t-25 11h-71q-15 0-25-11t-11-25v-280l-105 105q-11 11-25 11t-25-11l-51-50q-10-10-10-26t10-25l202-202 51-50q10-10 25-10t25 10l51 50 202 202q10 10 10 25z m140 1q0-117-57-215t-156-156-215-58-216 58-155 156-58 215 58 215 155 156 216 58 215-58 156-156 57-215z" horiz-adv-x="857.1" />

<glyph glyph-name="menu" unicode="&#xf0c9;" d="M857 100v-71q0-15-10-25t-26-11h-785q-15 0-25 11t-11 25v71q0 15 11 25t25 11h785q15 0 26-11t10-25z m0 286v-72q0-14-10-25t-26-10h-785q-15 0-25 10t-11 25v72q0 14 11 25t25 10h785q15 0 26-10t10-25z m0 285v-71q0-14-10-25t-26-11h-785q-15 0-25 11t-11 25v71q0 15 11 26t25 10h785q15 0 26-10t10-26z" horiz-adv-x="857.1" />

<glyph glyph-name="folder-empty" unicode="&#xf114;" d="M857 118v393q0 22-15 38t-38 15h-393q-23 0-38 16t-16 38v36q0 22-15 38t-38 15h-179q-22 0-38-15t-16-38v-536q0-22 16-38t38-16h679q22 0 38 16t15 38z m72 393v-393q0-51-37-88t-88-37h-679q-51 0-88 37t-37 88v536q0 51 37 88t88 37h179q51 0 88-37t37-88v-18h375q51 0 88-37t37-88z" horiz-adv-x="928.6" />

<glyph glyph-name="folder-open-empty" unicode="&#xf115;" d="M994 331q0 19-30 19h-607q-22 0-48-12t-39-29l-164-203q-11-13-11-22 0-20 30-20h607q23 0 48 13t40 29l164 203q10 12 10 22z m-637 90h429v90q0 22-16 38t-38 15h-321q-23 0-38 16t-16 38v36q0 22-15 38t-38 15h-179q-22 0-38-15t-16-38v-476l143 175q25 30 65 49t78 19z m708-90q0-35-25-67l-165-203q-24-30-65-49t-78-19h-607q-51 0-88 37t-37 88v536q0 51 37 88t88 37h179q51 0 88-37t37-88v-18h303q52 0 88-37t37-88v-90h107q30 0 56-13t37-40q8-17 8-37z" horiz-adv-x="1071.4" />

<glyph glyph-name="pagelines" unicode="&#xf18c;" d="M782 235q-17-45-42-77t-51-50-55-26-57-8-54 5-48 12-39 15-25 13l-10 6q-63-128-161-201t-215-74q-10 0-18 7t-7 18 7 18 18 7q97 0 180 60t140 164q-20-8-40-13t-46-7-51 1-52 16-51 33-47 56-42 81q64 27 120 32t93-4 70-31 49-43 32-46q29 73 44 162-4 0-10-1t-26-2-39 1-46 5-49 13-47 24-42 36-30 53-16 71q39 16 74 20t63 0 52-17 41-28 31-34 23-35 16-31 9-22l2-9q6 68 6 109-4 3-12 8t-27 25-35 40-30 52-19 63 7 71 39 77q41-14 71-34t47-43 27-47 11-50 0-48-7-42-11-35-9-23l-4-9q0-2 0-28t0-40q2 4 5 10t17 24 29 33 39 31 51 25 63 8 74-14q-1-43-12-79t-28-58-39-40-45-25-48-14-44-5-38 1-26 2l-9 2q-13-82-41-158 3 4 10 10t28 23 43 29 55 24 66 11 72-13 76-43z" horiz-adv-x="785.7" />

<glyph glyph-name="share" unicode="&#xf1e0;" d="M679 279q74 0 126-53t52-126-52-126-126-53-127 53-52 126q0 7 1 19l-201 100q-51-48-121-48-75 0-127 53t-52 126 52 126 127 53q70 0 121-48l201 100q-1 12-1 19 0 74 52 126t127 53 126-53 52-126-52-126-126-53q-71 0-122 48l-201-100q1-12 1-19t-1-19l201-100q51 48 122 48z" horiz-adv-x="857.1" />

<glyph glyph-name="address-card" unicode="&#xf2bb;" d="M571 219q0 36-5 65t-16 58-34 43-54 16q-3-2-17-10t-21-12-19-9-24-9-24-2-23 2-24 9-20 9-21 12-17 10q-32 0-54-16t-34-43-16-58-5-65 21-60 50-23h286q30 0 51 23t20 60z m-87 290q0 53-37 90t-90 37-89-37-37-90 37-89 89-38 90 38 37 89z m516-284v36q0 8-5 13t-13 5h-321q-8 0-13-5t-5-13v-36q0-8 5-13t13-5h321q8 0 13 5t5 13z m0 145v31q0 9-6 15t-14 5h-317q-8 0-14-5t-6-15v-31q0-8 6-14t14-6h317q8 0 14 6t6 14z m0 141v35q0 8-5 13t-13 5h-321q-8 0-13-5t-5-13v-35q0-8 5-13t13-5h321q8 0 13 5t5 13z m143 178v-678q0-37-26-63t-63-27h-197v54q0 8-5 13t-13 5h-35q-8 0-13-5t-5-13v-54h-429v54q0 8-5 13t-13 5h-35q-8 0-13-5t-5-13v-54h-197q-36 0-63 27t-26 63v678q0 37 26 63t63 27h965q36 0 63-27t26-63z" horiz-adv-x="1142.9" />

<glyph glyph-name="address-card-o" unicode="&#xf2bc;" d="M571 219q0-36-20-60t-51-23h-286q-30 0-50 23t-21 60 5 65 16 58 34 43 54 16q4-2 17-10t21-12 20-9 24-9 23-2 24 2 24 9 19 9 21 12 17 10q32 0 54-16t34-43 16-58 5-65z m-87 290q0-52-37-89t-90-38-89 38-37 89 37 90 89 37 90-37 37-90z m516-248v-36q0-8-5-13t-13-5h-321q-8 0-13 5t-5 13v36q0 8 5 13t13 5h321q8 0 13-5t5-13z m0 140v-31q0-8-6-14t-14-6h-317q-8 0-14 6t-6 14v31q0 9 6 15t14 5h317q8 0 14-5t6-15z m0 145v-35q0-8-5-13t-13-5h-321q-8 0-13 5t-5 13v35q0 8 5 13t13 5h321q8 0 13-5t5-13z m71-535v678q0 8-5 13t-12 5h-965q-7 0-12-5t-6-13v-678q0-7 6-13t12-5h197v53q0 8 5 13t13 5h35q8 0 13-5t5-13v-53h429v53q0 8 5 13t13 5h35q8 0 13-5t5-13v-53h197q7 0 12 5t5 13z m72 678v-678q0-37-26-63t-63-27h-965q-36 0-63 27t-26 63v678q0 37 26 63t63 27h965q36 0 63-27t26-63z" horiz-adv-x="1142.9" />
</font>
</defs>
</svg>